{
    "SymbolFrequency":{
        "T":15568,
        "h":249219,
        "e":589980,
        "F":4263,
        "u":127159,
        "l":192894,
        "t":423392,
        "o":357020,
        "n":332908,
        "C":7776,
        "y":80164,
        "G":3444,
        "r":287337,
        "a":371418,
        "d":184215,
        "J":3008,
        "s":300431,
        "i":333212,
        "v":46206,
        "g":89140,
        "f":106409,
        "A":11385,
        "'":28683,
        "c":139434,
        "p":90770,
        "m":113186,
        "`":17674,
        "k":29685,
        ".":55578,
        "j":4748,
        "-":15401,
        "E":3166,
        "x":9379,
        ",":58982,
        "w":83137,
        "S":10322,
        "b":66277,
        "O":3267,
        "D":4080,
        "P":5162,
        "M":7455,
        "I":12543,
        "z":4431,
        "q":4862,
        "H":8015,
        "L":3252,
        "W":6003,
        "N":3798,
        "B":6527,
        "R":3663,
        "1":5182,
        ":":1987,
        "(":2464,
        ")":2495,
        "2":2621,
        "9":2125,
        "3":1732,
        "7":1065,
        "4":1452,
        "6":1451,
        "8":1265,
        "V":1055,
        "$":579,
        "0":4458,
        "5":2144,
        "U":1640,
        "Y":1610,
        "K":1494,
        "&":166,
        "?":4694,
        ";":5566,
        "Q":241,
        "!":1597,
        "Z":122,
        "/":236,
        "%":147,
        "X":56,
        "*":173,
        "+":1,
        "[":2,
        "]":2,
        "{":16,
        "}":16,
        "\"":1,
        "\\":1,
        "_":1,
        " ":865398
    }
}