{
    "Tags":[
        "DET",
        "NP",
        "N",
        "ADJ",
        "VD",
        "P",
        "``",
        "''",
        "CNJ",
        "V",
        ".",
        "ADV",
        ",",
        "WH",
        "VBZ",
        "VN",
        "TO",
        "PRO",
        "VG",
        "NUM",
        "MOD",
        "*",
        "EX",
        ":",
        "(",
        ")",
        "",
        "'",
        "FW",
        "UH",
        "VB+PPO",
        "NIL",
        "VB+IN",
        "VBG+TO",
        "VBN+TO",
        "VB+RP",
        "VB+JJ",
        "VB+VB",
        "VB+TO",
        "VB+AT"
    ]
}